^C:\USERS\ALEXA\DESKTOP\TP4_1688837_1748834\BITMAP.CPP
/c /ZI /nologo /W3 /WX- /diagnostics:classic /sdl /Od /Oy- /D _MBCS /Gm /EHsc /RTC1 /MDd /GS /fp:precise /Zc:wchar_t /Zc:forScope /Zc:inline /Fo"DEBUG\\" /Fd"DEBUG\VC141.PDB" /Gd /TP /analyze- C:\USERS\ALEXA\DESKTOP\TP4_1688837_1748834\BITMAP.CPP
^C:\USERS\ALEXA\DESKTOP\TP4_1688837_1748834\GROUPEIMAGE.CPP
/c /ZI /nologo /W3 /WX- /diagnostics:classic /sdl /Od /Oy- /D _MBCS /Gm /EHsc /RTC1 /MDd /GS /fp:precise /Zc:wchar_t /Zc:forScope /Zc:inline /Fo"DEBUG\\" /Fd"DEBUG\VC141.PDB" /Gd /TP /analyze- C:\USERS\ALEXA\DESKTOP\TP4_1688837_1748834\GROUPEIMAGE.CPP
^C:\USERS\ALEXA\DESKTOP\TP4_1688837_1748834\IMAGE.CPP
/c /ZI /nologo /W3 /WX- /diagnostics:classic /sdl /Od /Oy- /D _MBCS /Gm /EHsc /RTC1 /MDd /GS /fp:precise /Zc:wchar_t /Zc:forScope /Zc:inline /Fo"DEBUG\\" /Fd"DEBUG\VC141.PDB" /Gd /TP /analyze- C:\USERS\ALEXA\DESKTOP\TP4_1688837_1748834\IMAGE.CPP
^C:\USERS\ALEXA\DESKTOP\TP4_1688837_1748834\MAIN.CPP
/c /ZI /nologo /W3 /WX- /diagnostics:classic /sdl /Od /Oy- /D _MBCS /Gm /EHsc /RTC1 /MDd /GS /fp:precise /Zc:wchar_t /Zc:forScope /Zc:inline /Fo"DEBUG\\" /Fd"DEBUG\VC141.PDB" /Gd /TP /analyze- C:\USERS\ALEXA\DESKTOP\TP4_1688837_1748834\MAIN.CPP
^C:\USERS\ALEXA\DESKTOP\TP4_1688837_1748834\PIXEL.CPP
/c /ZI /nologo /W3 /WX- /diagnostics:classic /sdl /Od /Oy- /D _MBCS /Gm /EHsc /RTC1 /MDd /GS /fp:precise /Zc:wchar_t /Zc:forScope /Zc:inline /Fo"DEBUG\\" /Fd"DEBUG\VC141.PDB" /Gd /TP /analyze- C:\USERS\ALEXA\DESKTOP\TP4_1688837_1748834\PIXEL.CPP
^C:\USERS\ALEXA\DESKTOP\TP4_1688837_1748834\PIXELBN.CPP
/c /ZI /nologo /W3 /WX- /diagnostics:classic /sdl /Od /Oy- /D _MBCS /Gm /EHsc /RTC1 /MDd /GS /fp:precise /Zc:wchar_t /Zc:forScope /Zc:inline /Fo"DEBUG\\" /Fd"DEBUG\VC141.PDB" /Gd /TP /analyze- C:\USERS\ALEXA\DESKTOP\TP4_1688837_1748834\PIXELBN.CPP
^C:\USERS\ALEXA\DESKTOP\TP4_1688837_1748834\PIXELCOULEUR.CPP
/c /ZI /nologo /W3 /WX- /diagnostics:classic /sdl /Od /Oy- /D _MBCS /Gm /EHsc /RTC1 /MDd /GS /fp:precise /Zc:wchar_t /Zc:forScope /Zc:inline /Fo"DEBUG\\" /Fd"DEBUG\VC141.PDB" /Gd /TP /analyze- C:\USERS\ALEXA\DESKTOP\TP4_1688837_1748834\PIXELCOULEUR.CPP
^C:\USERS\ALEXA\DESKTOP\TP4_1688837_1748834\PIXELGRIS.CPP
/c /ZI /nologo /W3 /WX- /diagnostics:classic /sdl /Od /Oy- /D _MBCS /Gm /EHsc /RTC1 /MDd /GS /fp:precise /Zc:wchar_t /Zc:forScope /Zc:inline /Fo"DEBUG\\" /Fd"DEBUG\VC141.PDB" /Gd /TP /analyze- C:\USERS\ALEXA\DESKTOP\TP4_1688837_1748834\PIXELGRIS.CPP
